id,name,model_id:id,group_id:id,perm_read,perm_write,perm_create,perm_unlink
access_inspection_location,inspection_location,model_inspection_location,base.group_user,1,1,1,1
access_mcu_company,mcu_company,model_mcu_company,base.group_user,1,1,1,1
access_mcu_inspection_package,mcu_inspection_package,model_mcu_inspection_package,base.group_user,1,1,1,1
access_mcu_inspection_location,mcu_inspection_location,model_mcu_inspection_location,base.group_user,1,1,1,1
access_import_data_wizard,import_data_wizard,model_import_data_wizard,base.group_user,1,1,1,1